^D:\_PROJECTPROG4\MINIGIN\MINIGIN\X64\DEBUG\BLOCK.OBJ|D:\_PROJECTPROG4\MINIGIN\MINIGIN\X64\DEBUG\COLLISIONCOMPONENT.OBJ|D:\_PROJECTPROG4\MINIGIN\MINIGIN\X64\DEBUG\COLLISIONMANAGER.OBJ|D:\_PROJECTPROG4\MINIGIN\MINIGIN\X64\DEBUG\COMPONENTMANAGER.OBJ|D:\_PROJECTPROG4\MINIGIN\MINIGIN\X64\DEBUG\DEMOSCENE.OBJ|D:\_PROJECTPROG4\MINIGIN\MINIGIN\X64\DEBUG\FONT.OBJ|D:\_PROJECTPROG4\MINIGIN\MINIGIN\X64\DEBUG\GAMEOBJECT.OBJ|D:\_PROJECTPROG4\MINIGIN\MINIGIN\X64\DEBUG\GAMEOVER.OBJ|D:\_PROJECTPROG4\MINIGIN\MINIGIN\X64\DEBUG\GAMEWON.OBJ|D:\_PROJECTPROG4\MINIGIN\MINIGIN\X64\DEBUG\GHOST.OBJ|D:\_PROJECTPROG4\MINIGIN\MINIGIN\X64\DEBUG\INPUTMANAGER.OBJ|D:\_PROJECTPROG4\MINIGIN\MINIGIN\X64\DEBUG\LOG.OBJ|D:\_PROJECTPROG4\MINIGIN\MINIGIN\X64\DEBUG\MAIN.OBJ|D:\_PROJECTPROG4\MINIGIN\MINIGIN\X64\DEBUG\MAINMENUSCENE.OBJ|D:\_PROJECTPROG4\MINIGIN\MINIGIN\X64\DEBUG\MEGAPELLET.OBJ|D:\_PROJECTPROG4\MINIGIN\MINIGIN\X64\DEBUG\MINIGIN.OBJ|D:\_PROJECTPROG4\MINIGIN\MINIGIN\X64\DEBUG\MINIGINPCH.OBJ|D:\_PROJECTPROG4\MINIGIN\MINIGIN\X64\DEBUG\PACMAN.OBJ|D:\_PROJECTPROG4\MINIGIN\MINIGIN\X64\DEBUG\PACMANSCENE.OBJ|D:\_PROJECTPROG4\MINIGIN\MINIGIN\X64\DEBUG\PAUSESCENE.OBJ|D:\_PROJECTPROG4\MINIGIN\MINIGIN\X64\DEBUG\PELLET.OBJ|D:\_PROJECTPROG4\MINIGIN\MINIGIN\X64\DEBUG\PLAYERGHOST.OBJ|D:\_PROJECTPROG4\MINIGIN\MINIGIN\X64\DEBUG\RENDERER.OBJ|D:\_PROJECTPROG4\MINIGIN\MINIGIN\X64\DEBUG\RESOURCEMANAGER.OBJ|D:\_PROJECTPROG4\MINIGIN\MINIGIN\X64\DEBUG\SCENE.OBJ|D:\_PROJECTPROG4\MINIGIN\MINIGIN\X64\DEBUG\SCENEMANAGER.OBJ|D:\_PROJECTPROG4\MINIGIN\MINIGIN\X64\DEBUG\TEXTCOMPONENT.OBJ|D:\_PROJECTPROG4\MINIGIN\MINIGIN\X64\DEBUG\TEXTURE2D.OBJ|D:\_PROJECTPROG4\MINIGIN\MINIGIN\X64\DEBUG\TEXTURECOMPONENT.OBJ|D:\_PROJECTPROG4\MINIGIN\MINIGIN\X64\DEBUG\TIME.OBJ|D:\_PROJECTPROG4\MINIGIN\MINIGIN\X64\DEBUG\TRANSFORM.OBJ
C:\WINDOWS\GLOBALIZATION\SORTING\SORTDEFAULT.NLS
D:\_PROJECTPROG4\MINIGIN\3RDPARTY\SDL2\LIB\X64\SDL2.LIB
D:\_PROJECTPROG4\MINIGIN\3RDPARTY\SDL2\LIB\X64\SDL2MAIN.LIB
D:\_PROJECTPROG4\MINIGIN\3RDPARTY\SDL2_IMAGE\LIB\X64\SDL2_IMAGE.LIB
D:\_PROJECTPROG4\MINIGIN\3RDPARTY\SDL2_TTF\LIB\X64\SDL2_TTF.LIB
C:\PROGRAM FILES (X86)\WINDOWS KITS\10\LIB\10.0.16299.0\UM\X64\KERNEL32.LIB
C:\PROGRAM FILES (X86)\WINDOWS KITS\10\LIB\10.0.16299.0\UM\X64\USER32.LIB
C:\PROGRAM FILES (X86)\WINDOWS KITS\10\LIB\10.0.16299.0\UM\X64\GDI32.LIB
C:\PROGRAM FILES (X86)\WINDOWS KITS\10\LIB\10.0.16299.0\UM\X64\WINSPOOL.LIB
C:\PROGRAM FILES (X86)\WINDOWS KITS\10\LIB\10.0.16299.0\UM\X64\COMDLG32.LIB
C:\PROGRAM FILES (X86)\WINDOWS KITS\10\LIB\10.0.16299.0\UM\X64\ADVAPI32.LIB
C:\PROGRAM FILES (X86)\WINDOWS KITS\10\LIB\10.0.16299.0\UM\X64\SHELL32.LIB
C:\PROGRAM FILES (X86)\WINDOWS KITS\10\LIB\10.0.16299.0\UM\X64\OLE32.LIB
C:\PROGRAM FILES (X86)\WINDOWS KITS\10\LIB\10.0.16299.0\UM\X64\OLEAUT32.LIB
C:\PROGRAM FILES (X86)\WINDOWS KITS\10\LIB\10.0.16299.0\UM\X64\UUID.LIB
C:\PROGRAM FILES (X86)\WINDOWS KITS\10\LIB\10.0.16299.0\UM\X64\ODBC32.LIB
C:\PROGRAM FILES (X86)\WINDOWS KITS\10\LIB\10.0.16299.0\UM\X64\ODBCCP32.LIB
D:\_PROJECTPROG4\MINIGIN\MINIGIN\X64\DEBUG\BLOCK.OBJ
D:\_PROJECTPROG4\MINIGIN\MINIGIN\X64\DEBUG\COLLISIONCOMPONENT.OBJ
D:\_PROJECTPROG4\MINIGIN\MINIGIN\X64\DEBUG\COLLISIONMANAGER.OBJ
D:\_PROJECTPROG4\MINIGIN\MINIGIN\X64\DEBUG\COMPONENTMANAGER.OBJ
D:\_PROJECTPROG4\MINIGIN\MINIGIN\X64\DEBUG\DEMOSCENE.OBJ
D:\_PROJECTPROG4\MINIGIN\MINIGIN\X64\DEBUG\FONT.OBJ
D:\_PROJECTPROG4\MINIGIN\MINIGIN\X64\DEBUG\GAMEOBJECT.OBJ
D:\_PROJECTPROG4\MINIGIN\MINIGIN\X64\DEBUG\GAMEOVER.OBJ
D:\_PROJECTPROG4\MINIGIN\MINIGIN\X64\DEBUG\GAMEWON.OBJ
D:\_PROJECTPROG4\MINIGIN\MINIGIN\X64\DEBUG\GHOST.OBJ
D:\_PROJECTPROG4\MINIGIN\MINIGIN\X64\DEBUG\INPUTMANAGER.OBJ
D:\_PROJECTPROG4\MINIGIN\MINIGIN\X64\DEBUG\LOG.OBJ
D:\_PROJECTPROG4\MINIGIN\MINIGIN\X64\DEBUG\MAIN.OBJ
D:\_PROJECTPROG4\MINIGIN\MINIGIN\X64\DEBUG\MAINMENUSCENE.OBJ
D:\_PROJECTPROG4\MINIGIN\MINIGIN\X64\DEBUG\MEGAPELLET.OBJ
D:\_PROJECTPROG4\MINIGIN\MINIGIN\X64\DEBUG\MINIGIN.OBJ
D:\_PROJECTPROG4\MINIGIN\MINIGIN\X64\DEBUG\MINIGINPCH.OBJ
D:\_PROJECTPROG4\MINIGIN\MINIGIN\X64\DEBUG\PACMAN.OBJ
D:\_PROJECTPROG4\MINIGIN\MINIGIN\X64\DEBUG\PACMANSCENE.OBJ
D:\_PROJECTPROG4\MINIGIN\MINIGIN\X64\DEBUG\PAUSESCENE.OBJ
D:\_PROJECTPROG4\MINIGIN\MINIGIN\X64\DEBUG\PELLET.OBJ
D:\_PROJECTPROG4\MINIGIN\MINIGIN\X64\DEBUG\PLAYERGHOST.OBJ
D:\_PROJECTPROG4\MINIGIN\MINIGIN\X64\DEBUG\RENDERER.OBJ
D:\_PROJECTPROG4\MINIGIN\MINIGIN\X64\DEBUG\RESOURCEMANAGER.OBJ
D:\_PROJECTPROG4\MINIGIN\MINIGIN\X64\DEBUG\SCENE.OBJ
D:\_PROJECTPROG4\MINIGIN\MINIGIN\X64\DEBUG\SCENEMANAGER.OBJ
D:\_PROJECTPROG4\MINIGIN\MINIGIN\X64\DEBUG\TEXTCOMPONENT.OBJ
D:\_PROJECTPROG4\MINIGIN\MINIGIN\X64\DEBUG\TEXTURE2D.OBJ
D:\_PROJECTPROG4\MINIGIN\MINIGIN\X64\DEBUG\TEXTURECOMPONENT.OBJ
D:\_PROJECTPROG4\MINIGIN\MINIGIN\X64\DEBUG\TIME.OBJ
D:\_PROJECTPROG4\MINIGIN\MINIGIN\X64\DEBUG\TRANSFORM.OBJ
C:\WINDOWS\SYSTEM32\TZRES.DLL
C:\PROGRAM FILES (X86)\MICROSOFT VISUAL STUDIO\2017\ENTERPRISE\VC\TOOLS\MSVC\14.12.25827\LIB\X64\MSVCPRTD.LIB
C:\PROGRAM FILES (X86)\MICROSOFT VISUAL STUDIO\2017\ENTERPRISE\VC\TOOLS\MSVC\14.12.25827\LIB\X64\MSVCRTD.LIB
C:\PROGRAM FILES (X86)\MICROSOFT VISUAL STUDIO\2017\ENTERPRISE\VC\TOOLS\MSVC\14.12.25827\LIB\X64\OLDNAMES.LIB
C:\PROGRAM FILES (X86)\WINDOWS KITS\10\LIB\10.0.16299.0\UM\X64\XINPUT.LIB
D:\PROGRAM FILES\VISUAL LEAK DETECTOR\LIB\WIN64\VLD.LIB
C:\PROGRAM FILES (X86)\MICROSOFT VISUAL STUDIO\2017\ENTERPRISE\VC\TOOLS\MSVC\14.12.25827\LIB\X64\VCRUNTIMED.LIB
C:\PROGRAM FILES (X86)\WINDOWS KITS\10\LIB\10.0.16299.0\UCRT\X64\UCRTD.LIB
